{
  "markers": [
    { "key": "h1_0", "title":"1&#8372; face", "width": 118, "height": 63 },
    { "key": "h1_1", "title":"1&#8372; back", "width": 118, "height": 63 },
    { "key": "h5_0", "title":"5&#8372; face", "width": 118, "height": 63 },
    { "key": "h10_0", "title":"10&#8372; face", "width": 124, "height": 66 },
    { "key": "h50_0", "title":"50&#8372; face", "width": 136, "height": 72 },
    { "key": "h50_1", "title":"50&#8372; back", "width": 136, "height": 72 },
    { "key": "h200_0", "title":"200&#8372; face", "width": 74, "height": 75 },
    { "key": "h200_1", "title":"200&#8372; back", "width": 148, "height": 75 },
  
    { "key": "euro_5_1", "title":"5&euro; back", "width": 120, "height": 62 },
    { "key": "euro_10_0", "title":"10&euro; back", "width": 127, "height": 67 },
    { "key": "euro_20_0", "title":"20&euro; face", "width": 133, "height": 72 },
    { "key": "euro_20_1", "title":"20&euro; back", "width": 133, "height": 72 },
    { "key": "euro_20_0_old", "title":"20&euro; face, old", "width": 133, "height": 72 },
    { "key": "euro_50_0", "title":"50&euro; face", "width": 140, "height": 77 },
    { "key": "euro_50_0_old", "title":"50&euro; face, old", "width": 140, "height": 77 },
  
    { "key": "lira_5_0_small", "title":"5 lira; face", "width": 130, "height": 64 },
    { "key": "lira_5_0", "title":"5 lira; face", "width": 130, "height": 64 },
    { "key": "lira_5_0_new", "title":"5 lira; back", "width": 130, "height": 64 },
  
    { "key": "lira_10_0", "title":"10 &#20BA; face", "width": 136, "height": 64 },
    { "key": "lira_10_1", "title":"10 lira; back", "width": 136, "height": 64 },
    { "key": "lira_20_0", "title":"20 lira; face", "width": 142, "height": 68 },
    { "key": "lira_20_1", "title":"20 lira; back", "width": 142, "height": 68 },
    { "key": "lira_50_0", "title":"50 lira; face", "width": 148, "height": 68 },
    { "key": "lira_50_1", "title":"50 lira; back", "width": 148, "height": 68 },
    { "key": "lira_100_0", "title":"100 lira; face", "width": 154, "height": 72 },
    { "key": "lira_100_1", "title":"100 lira; back", "width": 154, "height": 72 },
    { "key": "lira_200_0", "title":"200 lira; face", "width": 160, "height": 72 },
    { "key": "lira_200_1", "title":"200 lira; back", "width": 160, "height": 72 }
  ],
  "glasses": [
    { "name": "Branches Bent", "dimensions": [ 140, 46.7 ], "file": "branchesBent.glb", "icon": "branchesBent.png" },
    { "name": "Cadnav.com A0915C061", "dimensions": [ 136, 25.1 ], "file": "cadnav.com_A0915C061.glb", "icon": "cadnav.com_A0915C061.png" }
  ]
}
